HW5
…
# A tibble: 5 × 6
  RowName    mean median   var    sd   IQR
  <chr>     <dbl>  <int> <dbl> <dbl> <dbl>
1 age       16.7      17  1.48  1.22     2
2 abscenses  3.66      2 21.5   4.64     6
3 G1        11.4      11  7.54  2.75     3
4 G2        11.6      11  8.49  2.91     3
5 G3        11.9      12 10.4   3.23     4

#Repeating this process while subsetting the data for all schools to only include MS school for the math data
MS_only_data <- math_data |>
  filter(school == "MS")
MS_only_data

# A tibble: 46 × 37
   school sex     age address famsize Pstatus  Medu  Fedu Mjob     Fjob   reason
   <chr>  <fct> <int> <chr>   <fct>   <fct>   <int> <int> <chr>    <chr>  <chr> 
 1 MS     M        18 R       GT3     T           3     2 other    other  course
 2 MS     M        19 R       GT3     T           1     1 other    servi… home  
 3 MS     M        17 U       GT3     T           3     3 health   other  course
 4 MS     M        18 U       LE3     T           1     3 at_home  servi… course
 5 MS     M        19 R       GT3     T           1     1 other    other  home  
 6 MS     M        17 R       GT3     T           4     3 services other  home  
 7 MS     F        18 U       GT3     T           3     3 services servi… course
 8 MS     F        17 R       GT3     T           4     4 teacher  servi… other 
 9 MS     F        17 U       LE3     A           3     2 services other  reput…
10 MS     M        18 U       LE3     T           1     1 other    servi… home  
# ℹ 36 more rows
# ℹ 26 more variables: guardian <chr>, traveltime <int>, studytime <int>,
#   failures <int>, schoolsup <chr>, famsup <chr>, paid <chr>,
#   activities <chr>, nursery <chr>, higher <chr>, internet <chr>,
#   romantic <fct>, famrel <int>, freetime <int>, goout <int>, Dalc <int>,
#   Walc <int>, health <int>, absences <int>, G1 <int>, G2 <int>, G3 <int>,
#   Sex_f <fct>, famsize_f <fct>, Pstatus_F <fct>, romantic_F <fct>
…
